<?xml version="1.0" encoding="UTF-8" standalone="no"?>
<!-- Created with Inkscape (http://www.inkscape.org/) -->

<svg
   width="31.999998"
   height="31.999998"
   viewBox="0 0 8.4666662 8.4666662"
   version="1.1"
   id="svg5"
   inkscape:version="1.2 (1:1.2.1+202207142221+cd75a1ee6d)"
   xml:space="preserve"
   sodipodi:docname="favicon-source.svg"
   xmlns:inkscape="http://www.inkscape.org/namespaces/inkscape"
   xmlns:sodipodi="http://sodipodi.sourceforge.net/DTD/sodipodi-0.dtd"
   xmlns="http://www.w3.org/2000/svg"
   xmlns:svg="http://www.w3.org/2000/svg"><sodipodi:namedview
     id="namedview7"
     pagecolor="#ffffff"
     bordercolor="#666666"
     borderopacity="1.0"
     inkscape:showpageshadow="true"
     inkscape:pageopacity="0.0"
     inkscape:pagecheckerboard="false"
     inkscape:deskcolor="#d1d1d1"
     inkscape:document-units="mm"
     showgrid="false"
     showborder="false"
     inkscape:zoom="11.313708"
     inkscape:cx="7.0268737"
     inkscape:cy="21.831922"
     inkscape:window-width="1920"
     inkscape:window-height="1011"
     inkscape:window-x="0"
     inkscape:window-y="0"
     inkscape:window-maximized="1"
     inkscape:current-layer="layer1"><inkscape:grid
       type="xygrid"
       id="grid297"
       originx="-210.34375"
       originy="-70.114586" /></sodipodi:namedview><defs
     id="defs2" /><g
     inkscape:label="Layer 1"
     inkscape:groupmode="layer"
     id="layer1"
     transform="translate(-210.34375,-70.114586)"><rect
       style="opacity:1;fill:none;stroke:none;stroke-width:0.529167;stop-color:#000000"
       id="rect299"
       width="8.4666662"
       height="8.4666662"
       x="210.34375"
       y="70.114586" /><rect
       style="opacity:1;fill:#5f94be;fill-opacity:1;stroke-width:0.648092;stop-color:#000000"
       id="rect343"
       width="2.3812358"
       height="5.2916665"
       x="210.87294"
       y="72.231247" /><rect
       style="opacity:1;fill:#b2cce0;fill-opacity:1;stroke-width:0.611031;stop-color:#000000"
       id="rect449"
       width="2.1166606"
       height="3.968745"
       x="213.51877"
       y="73.554176" /><rect
       style="opacity:1;fill:#ffcc00;fill-opacity:1;stroke-width:0.648092;stop-color:#000000"
       id="rect503"
       width="2.3812392"
       height="7.1437526"
       x="215.89999"
       y="70.379166" /><rect
       style="opacity:1;fill:#0284ea;stroke-width:0.529167;stop-color:#000000;fill-opacity:1"
       id="rect559"
       width="7.9375"
       height="0.52916664"
       x="210.60834"
       y="77.522919" /><rect
       style="opacity:1;fill:#000000;fill-opacity:0.119508;stroke-width:0.246895;stop-color:#000000"
       id="rect2473"
       width="0.34558582"
       height="7.1437526"
       x="215.89999"
       y="70.379166" /><rect
       style="opacity:1;fill:#000000;fill-opacity:0.119508;stroke-width:0.246895;stop-color:#000000"
       id="rect2475"
       width="0.34558582"
       height="7.1437526"
       x="217.93567"
       y="70.379166" /><rect
       style="opacity:1;fill:#000000;fill-opacity:0.297915;stroke-width:0.28599;stop-color:#000000"
       id="rect2479"
       width="0.78248662"
       height="4.2333331"
       x="228.42543"
       y="-1.1093043"
       transform="matrix(0.94886565,0.31568017,0,1,0,0)" /><rect
       style="opacity:1;fill:#000000;fill-opacity:0.119508;stroke-width:0.161019;stop-color:#000000"
       id="rect2481"
       width="0.26458028"
       height="3.9687495"
       x="213.51875"
       y="73.554176" /><rect
       style="opacity:1;fill:#000000;fill-opacity:0.119508;stroke-width:0.161026;stop-color:#000000"
       id="rect2483"
       width="0.26460418"
       height="3.9687495"
       x="215.37083"
       y="73.554176" /><rect
       style="opacity:1;fill:#000000;fill-opacity:0.119508;stroke-width:0.185933;stop-color:#000000"
       id="rect2485"
       width="0.26459044"
       height="5.2916608"
       x="210.87291"
       y="72.231247" /><rect
       style="opacity:1;fill:#000000;fill-opacity:0.119508;stroke-width:0.185932;stop-color:#000000"
       id="rect2487"
       width="0.26458701"
       height="5.2916608"
       x="212.98958"
       y="72.231247" /><rect
       style="opacity:1;fill:#000000;fill-opacity:0.297915;stroke-width:0.20468;stop-color:#000000"
       id="rect4766"
       width="0.68417639"
       height="2.4799297"
       x="222.10057"
       y="15.669291"
       transform="matrix(0.96464017,0.26357037,0,1,0,0)" /><rect
       style="opacity:1;fill:#000000;fill-opacity:0.297915;stroke-width:0.20233;stop-color:#000000"
       id="rect4768"
       width="0.78329772"
       height="2.116667"
       x="223.33173"
       y="1.6931937"
       transform="matrix(0.94788294,0.31861877,0,1,0,0)" /></g></svg>
